…
## Value

the input dataframe coerced to be conformant to the `iface`
specification, or an informative error is thrown.

## Examples

``` r
i_diamonds = iface(
  color = enum(D,E,F,G,H,I,J,extra) ~ "the colour",
  price = integer ~ "the price"
)

iconvert(ggplot2::diamonds, i_diamonds,.prune = TRUE)
#> # A tibble: 53,940 × 2
#>    color price
#>  * <fct> <int>
#>  1 E       326
#>  2 E       326
#>  3 E       327
#>  4 I       334
#>  5 J       335
#>  6 J       336
#>  7 I       336
#>  8 H       337
#>  9 E       337
#> 10 H       338
#> # ℹ 53,930 more rows
…
